

+---------------------------------------------+------------+------------+
| Total CPU time elapsed since start          |  1.08e+05s |            |
|                                             |            |            |
| Section                         | no. calls |  CPU time  | % of total |
+---------------------------------+-----------+------------+------------+
| Assemble System                 |        25 |      15.6s |     0.014% |
| Estimate Error                  |        25 |      28.9s |     0.027% |
| Mark and Refine                 |        24 |      30.8s |     0.029% |
| Output Solution                 |        25 |       298s |      0.28% |
| Setup System                    |        25 |      5.09s |    0.0047% |
| Solve                           |        25 |  1.07e+05s |     1e+02% |
+---------------------------------+-----------+------------+------------+



+---------------------------------------------+------------+------------+
| Total wallclock time elapsed since start    |     6e+04s |            |
|                                             |            |            |
| Section                         | no. calls |  wall time | % of total |
+---------------------------------+-----------+------------+------------+
| Assemble System                 |        25 |      7.95s |     0.013% |
| Estimate Error                  |        25 |      14.7s |     0.025% |
| Mark and Refine                 |        24 |      15.6s |     0.026% |
| Output Solution                 |        25 |       152s |      0.25% |
| Setup System                    |        25 |      2.58s |    0.0043% |
| Solve                           |        25 |  5.98e+04s |     1e+02% |
+---------------------------------+-----------+------------+------------+

