$NOD
16
1  0   0   0
2  1.1 0   0
3  2   0   0
4  3   0   0
5  0   1.1 0
6  1.1 1.1 0
7  2   1.1 0
8  3   1.1 0
9  0   2   0
10  1.1 2   0
11  2   2   0
12  3   2   0
13  0   3   0
14  1.1 3   0
15  2   3   0
16  3   3   0
$ENDNOD
$ELM
8
1 3 0 0 4 1 2 6 5 
2 3 0 0 4 2 3 7 6 
3 3 0 0 4 3 4 8 7 
4 3 0 0 4 5 6 10 9 
5 3 0 0 4 7 8 12 11 
6 3 0 0 4 9 10 14 13 
7 3 0 0 4 10 11 15 14 
8 3 0 0 4 11 12 16 15 
$ENDELM
